{
  "project_info": {
    "project_number": "3718382606",
    "project_id": "chat-app-2f611",
    "storage_bucket": "chat-app-2f611.appspot.com"
  },
  "client": [
    {
      "client_info": {
        "mobilesdk_app_id": "1:3718382606:android:1a54d28620bf4e4de6e85f",
        "android_client_info": {
          "package_name": "com.reactnativepush"
        }
      },
      "oauth_client": [
        {
          "client_id": "3718382606-bldjdjnl7iu4n86tpqshog83nrg8q968.apps.googleusercontent.com",
          "client_type": 1,
          "android_info": {
            "package_name": "com.reactnativepush",
            "certificate_hash": "7da703ac14b45cdfafedfcb09b4b889229d016e9"
          }
        },
        {
          "client_id": "3718382606-6vqfp05o7grthnfe1l0odhohc7i1jin3.apps.googleusercontent.com",
          "client_type": 3
        }
      ],
      "api_key": [
        {
          "current_key": "AIzaSyCb_JKfRA3-SNQZrMOb_YBkYjufENRrEmw"
        }
      ],
      "services": {
        "appinvite_service": {
          "other_platform_oauth_client": [
            {
              "client_id": "3718382606-6vqfp05o7grthnfe1l0odhohc7i1jin3.apps.googleusercontent.com",
              "client_type": 3
            }
          ]
        }
      }
    }
  ],
  "configuration_version": "1"
}